....
----------------------------------------------------------------------
Ran 4 tests in 0.000s

OK
Name               Stmts   Miss  Cover
--------------------------------------
Diplomacy.py          53      3    94%
TestDiplomacy.py      26      0   100%
--------------------------------------
TOTAL                 79      3    96%
