....................
----------------------------------------------------------------------
Ran 20 tests in 0.004s

OK
Name               Stmts   Miss Branch BrPart  Cover   Missing
--------------------------------------------------------------
Diplomacy.py         108      4     52      5    94%   21, 33, 39, 42, 70->73, 97->92, 122->114, 130->127, 136->135
TestDiplomacy.py      98      0      0      0   100%
--------------------------------------------------------------
TOTAL                206      4     52      5    97%
